Example run of MixedUpParents • MixedUpParents
…
This step, and the extension step that follows, take a little time,
but not as much as the calculating the pairwise likelihoods later.

AS <- ancestral_n_segments(
  D = TW$spp_diag_snps,
  chrom_levels = unique(TW$spp_diag_snps$chrom)
)

AS
#> # A tibble: 352,253 × 8
#>    diag_spp indiv chrom chrom_f     n n_f      start     stop
#>    <chr>    <chr> <chr> <fct>   <int> <fct>    <int>    <int>
#>  1 WCT      30056 omy01 omy01       1 1      5604476 74803921
#>  2 WCT      30056 omy02 omy02       2 2     45656675 85467553
#>  3 WCT      30056 omy03 omy03       2 2     53419215 64080711
#>  4 WCT      30056 omy04 omy04       2 2     17200856 65959628
#>  5 WCT      30056 omy05 omy05       2 2     26549554 71264380
#>  6 WCT      30056 omy06 omy06       1 1      6207101 58538807
#>  7 WCT      30056 omy07 omy07       1 1     17341546 58214623
#>  8 WCT      30056 omy08 omy08       2 2     14525752 69379276
#>  9 WCT      30056 omy09 omy09       2 2     27468641 68137677
#> 10 WCT      30056 omy10 omy10       2 2     26820894 50560803
#> # ℹ 352,243 more rows
…
Here the biological labels are ordered as WCT,
RBT, and YCT. That ordering defines the
internal labels A, B, and C.

species_levels <- c(TW$spp_names, "YCT")

E <- extend_ancestral_segments_using_bedtools(
  AS,
  species_levels = species_levels
)
#> Extending ancestral segments using bedtools in temp directory: /var/folders/ln/5brnn1wx0vj58fhlbbdjm8h40000gp/T//Rtmp9KPVId/file70d69fec3c2

E
#> # A tibble: 116,798 × 5
#>    indiv chrom_f copy_num    start     stop
#>    <chr> <fct>   <chr>       <dbl>    <dbl>
#>  1 23939 omy01   A2B0C0    5604475 76705842
#>  2 23939 omy02   A2B0C0   14627479 85467554
#>  3 23939 omy03   A2B0C0   16863659 70168237
#>  4 23939 omy04   A2B0C0   17200854 75324433
#>  5 23939 omy05   A2B0C0   26549553 71264381
#>  6 23939 omy06   A2B0C0     869438 58538808
#>  7 23939 omy07   A1B1C0   16963823 58933104
#>  8 23939 omy08   A1B1C0   11401961 66452476
#>  9 23939 omy09   A2B0C0   32804922 68137678
#> 10 23939 omy10   A2B0C0   10179164 56110002
#> # ℹ 116,788 more rows
…
pars_in_samples <- qped %>%
  filter(ped_id %in% kids) %>%
  select(ped_id, ped_p1, ped_p2) %>%
  mutate(
    p1_in_sample = ped_p1 %in% all_candi,
    p2_in_sample = ped_p2 %in% all_candi,
    num_parents_in_sample = p1_in_sample + p2_in_sample
  ) %>%
  mutate(
    across(c(ped_id, ped_p1, ped_p2), as.character)
  )

pars_in_samples
#> # A tibble: 1,186 × 6
#>    ped_id ped_p1 ped_p2 p1_in_sample p2_in_sample num_parents_in_sample
#>    <chr>  <chr>  <chr>  <lgl>        <lgl>                        <int>
#>  1 30056  27578  27571  TRUE         FALSE                            1
#>  2 30059  27578  27571  TRUE         FALSE                            1
#>  3 32119  28770  28832  TRUE         FALSE                            1
#>  4 30061  27578  27571  TRUE         FALSE                            1
#>  5 33004  29998  29377  TRUE         FALSE                            1
#>  6 30068  27788  27453  TRUE         TRUE                             2
#>  7 30070  27788  27453  TRUE         TRUE                             2
#>  8 30071  27788  27453  TRUE         TRUE                             2
#>  9 30072  27788  27453  TRUE         TRUE                             2
#> 10 30074  27731  27484  FALSE        FALSE                            0
#> # ℹ 1,176 more rows
…
top_pairs %>%
  select(kid_id, par_id, logl_ratio, po_fs_logl_ratio, rel_label,
         dom_relat, max_hit,
         ped_p1, ped_p2, num_parents_in_sample,
         nonMissingDiag, nonMissingVar)
#> # A tibble: 5,930 × 12
#>    kid_id par_id logl_ratio po_fs_logl_ratio rel_label dom_relat max_hit ped_p1
#>    <chr>  <chr>       <dbl>            <dbl> <chr>     <chr>       <int> <chr> 
#>  1 30056  27578      35.3               7.67 PO        PO              1 27578 
#>  2 30056  30061      25.6              -9.10 Si-2      Si              2 27578 
#>  3 30056  30059      -0.608           -22.6  Si-2      Si              2 27578 
#>  4 30056  25119      -3.85             -2.71 U         U               0 27578 
#>  5 30056  30623      -3.86             -2.18 U         U               0 27578 
#>  6 30059  27578      32.9               9.34 PO        PO              1 27578 
#>  7 30059  30061      15.4             -32.7  Si-2      Si              2 27578 
#>  8 30059  30240       5.71             -3.17 Si-1      Si              1 27578 
#>  9 30059  30056       1.19            -18.6  Si-2      Si              2 27578 
#> 10 30059  25298      -0.130             3.24 U         U               0 27578 
#> # ℹ 5,920 more rows
#> # ℹ 4 more variables: ped_p2 <chr>, num_parents_in_sample <int>,
#> #   nonMissingDiag <int>, nonMissingVar <int>
…
